...
----------------------------------------------------------------------
Ran 3 tests in 0.001s

OK
Name               Stmts   Miss Branch BrPart  Cover   Missing
--------------------------------------------------------------
Diplomacy.py          50      0     32      1    99%   34->29
TestDiplomacy.py      19      0      0      0   100%
--------------------------------------------------------------
TOTAL                 69      0     32      1    99%
