Name               Stmts   Miss Branch BrPart  Cover   Missing
--------------------------------------------------------------
Diplomacy.py         108      0     62      0   100%
TestDiplomacy.py      34      0      0      0   100%
--------------------------------------------------------------
TOTAL                142      0     62      0   100%
