Name               Stmts   Miss  Cover   Missing
------------------------------------------------
Diplomacy.py         108      0   100%
TestDiplomacy.py      29      0   100%
------------------------------------------------
TOTAL                137      0   100%
